EJECUTIVO_ID;EJECUTIVO_IDENTIFICACION;EJECUTIVO_NOMBRES;EJECUTIVO_APELLIDOS;EJECUTIVO_DIRECCION;EJECUTIVO_TELEFONO;EJECUTIVO_CELULAR;EJECUTIVO_PATIO;EJECUTIVO_EDAD
1;6259656270;Alfonso;Phare;6670 Boyd Terrace;+351 296 362 3092;505-510-8326;Estradiol Valerate;11
2;6754341335;Stanislaus;Basden;4 Mayer Park;+1 910 154 0282;492-262-9309;Clonidine Hydrochloride;72
3;1940385342;Bernelle;Pevie;60562 Blackbird Parkway;+57 437 980 3359;968-540-1651;Smart Sense Aspirin;63
4;8425227615;Rene;Ostick;4 Delaware Drive;+62 252 134 7675;948-452-9039;Lice Treatment;20
5;9891944255;Andree;Denyagin;7 Sunnyside Road;+33 230 925 2220;541-451-0742;equate acid reducer;14
6;8192887227;Brunhilde;Espadate;54 Sunbrook Court;+54 867 587 6662;934-205-9290;UltraMax Invisible Solid;62
7;7609853410;Quint;Heavy;854 Waywood Road;+507 143 312 5414;344-149-1554;symmetry Antimicrobial Foaming Hand Wash;4
8;0213236435;Samson;Merkel;96 Pankratz Alley;+7 506 786 4409;838-623-8846;Kmart Corporation;1
9;5861007012;Lindsey;Mansbridge;417 Mayer Center;+251 957 983 2812;940-666-7425;Softone Luxury Foam Antibacterial Skin Cleanser;2
10;7150854508;Harmony;McCrostie;13201 Pepper Wood Road;+880 361 101 0092;681-714-9889;Multi Antibiotic with Pain Relief;56
11;8407335983;Mirelle;Bohden;509 Commercial Hill;+64 389 841 6537;496-498-6995;Oxygen;64
12;2635880751;Finlay;Baccus;6 Carpenter Crossing;+56 104 280 5547;736-540-7675;Losartan Potassium;64
13;0321964985;Hobie;Cypler;342 Hudson Lane;+223 745 164 2119;208-483-8765;"Food - Plant Source; Brazil Nut Bertholletia excelsa";94
14;8746049584;Meredithe;Nicolson;4023 Forest Lane;+62 339 801 4234;565-303-2405;paclitaxel;63
15;9307172455;Alexei;Hryniewicz;3574 Arrowood Street;+48 919 467 9403;738-573-2464;Donepezil hydrochloride;99
16;8904745217;Sonnnie;Grigoli;82600 La Follette Way;+51 919 786 2795;657-603-1293;PEN Prep Plus;24
17;8462732093;Devondra;Burgwin;5739 Park Meadow Junction;+593 982 305 0137;398-371-5511;Spironolactone;11
18;1159304947;Pinchas;Jewess;047 Grim Plaza;+48 300 963 0229;922-779-4870;Hawaiian Tropic;51
19;3872779990;Georgina;McCarrell;1357 Mosinee Plaza;+1 499 442 7152;864-669-3906;Inclear;86
20;7428865727;Odell;Ambrosoli;1687 Burning Wood Avenue;+994 806 317 7098;971-967-2760;CHENOPODIUM AMBROSIOIDES POLLEN;8
